…
#fill the NA with 0
clean_ufo_2000 <- ufo_2000
clean_ufo_2000[is.na(clean <-  clean_ufo_2000)] <- 0  
clean_ufo_2000
```

    ## # A tibble: 49 x 16
    ##    state `2000` `2001` `2002` `2003` `2004` `2005` `2006` `2007` `2008` `2009`
    ##    <chr>  <dbl>  <dbl>  <dbl>  <dbl>  <dbl>  <dbl>  <dbl>  <dbl>  <dbl>  <dbl>
    ##  1 NY        12     28     21     41     32     27     30     41     19     31
    ##  2 TX         6      7      2      4      2      4      4      3      4      5
    ##  3 WA        13      8      3     10      8      8      6      5      3      2
    ##  4 OR         5      5      2      2      1      2      1      0      0      1
    ##  5 CT         1      0      1      0      0      1      0      0      1      1
    ##  6 PA         4      3      0      2      2      1      3      1      4      1
    ##  7 OK         1      3      0      1      0      2      0      0      1      2
    ##  8 CA        18      8     14     13     11      9     13     10     16      9
    ##  9 FL         7      5      2      3      5      7      3      3      2      1
    ## 10 OH         6      0      4      1      3      2      3      1      0      1
    ## # … with 39 more rows, and 5 more variables: `2010` <dbl>, `2011` <dbl>,
    ## #   `2012` <dbl>, `2013` <dbl>, `2014` <dbl>

``` r
clean_ufo_2000
```

    ## # A tibble: 49 x 16
    ##    state `2000` `2001` `2002` `2003` `2004` `2005` `2006` `2007` `2008` `2009`
    ##    <chr>  <dbl>  <dbl>  <dbl>  <dbl>  <dbl>  <dbl>  <dbl>  <dbl>  <dbl>  <dbl>
    ##  1 NY        12     28     21     41     32     27     30     41     19     31
    ##  2 TX         6      7      2      4      2      4      4      3      4      5
    ##  3 WA        13      8      3     10      8      8      6      5      3      2
    ##  4 OR         5      5      2      2      1      2      1      0      0      1
    ##  5 CT         1      0      1      0      0      1      0      0      1      1
    ##  6 PA         4      3      0      2      2      1      3      1      4      1
    ##  7 OK         1      3      0      1      0      2      0      0      1      2
    ##  8 CA        18      8     14     13     11      9     13     10     16      9
    ##  9 FL         7      5      2      3      5      7      3      3      2      1
    ## 10 OH         6      0      4      1      3      2      3      1      0      1
    ## # … with 39 more rows, and 5 more variables: `2010` <dbl>, `2011` <dbl>,
    ## #   `2012` <dbl>, `2013` <dbl>, `2014` <dbl>
…
